United Nations Country Statistics Data - A focus on women’s condition
…
Angola
59.8/77.1
63.0/57.4

As clearly visible for both columns depicting labour force participation and life expectancy at birth, an attempt has been made to preserve more information within each column. This violates one of the tidy data principles that suggests provision of seperate cell for each value.

tf <- as_tibble(df[main_selection])

tf %>% 
  separate(Labour.force.participation..female.male.pop...., into = c("percent_female_labour", "percent_male_labour"), sep = "/", convert = TRUE)

## Warning: Expected 2 pieces. Missing pieces filled with `NA` in 14 rows [5, 26,
## 30, 83, 84, 92, 131, 133, 170, 173, 184, 205, 211, 225].

## # A tibble: 229 × 7
##    Region         country             Population.in.t… Sex.ratio..m.pe… percent_female_…
##    <chr>          <chr>                          <int>            <dbl> <chr>           
##  1 SouthernAsia   Afghanistan                    35530            106.  19.3            
##  2 SouthernEurope Albania                         2930            102.  40.2            
##  3 NorthernAfrica Algeria                        41318            102   17.0            
##  4 Polynesia      American Samoa                    56            104.  ...             
##  5 SouthernEurope Andorra                           77            102.  -99             
##  6 MiddleAfrica   Angola                         29784             96.2 59.8            
##  7 Caribbean      Anguilla                          15             97.6 ...             
##  8 Caribbean      Antigua and Barbuda              102             92.3 ...             
##  9 SouthAmerica   Argentina                      44271             95.9 48.6            
## 10 WesternAsia    Armenia                         2930             88.8 55.3            
## # … with 219 more rows, and 2 more variables: percent_male_labour <chr>,
## #   Life.expectancy.at.birth..females.males..years. <chr>
…
